{
  "component": "packs-components/Randomize",
  "seed": "$workerId",
  "states": [
    {
      "override_scale": {
        "max_point": "Highest level possible",
        "min_point": "Lowest level possible"
      }
    }
  ]
}