
{
    "aspects":[ 
      {
        "code": "height",
        "md": "Your height",
        "color": "rgb(242, 242, 140)",
        "text": "your height",
        "unit": "%"
      },
      {
        "code": "weight",
        "md": "Your weight",
        "color": "rgb(242, 242, 140)",
        "text": "your weight",
        "unit": "%"
  
      }
    ],
    "label": "More background questions",
    "module_name" :"Weight_height_subj",
    "instructions": "Now, we would like to know how you would rate your height and weight for your gender on a scale similar to the one you used for the rating questions. **Note:** The scale here goes from the ”Lowest level in the U.S.” to the “Highest level in the U.S.”",
    "component": "wiagl-components/DoubleRating",
    "override_scale": {
        "max_point": "Highest level in the U.S.",
        "min_point": "Lowest level in the U.S."
      }
  } 